{
  "shell_port": 48037,
  "iopub_port": 38779,
  "stdin_port": 40025,
  "control_port": 44441,
  "hb_port": 47797,
  "ip": "127.0.0.1",
  "key": "383ceef1-496b21e9390b1b8d5585b80c",
  "transport": "tcp",
  "signature_scheme": "hmac-sha256",
  "kernel_name": ""
}